 2008  git pull
 2009  ls
 2010  git branch -v
 2011  git switch -c class2_hw2_524649
 2012  cd class3_homework/
 2013  vim 524649.txt
 2014  git add 524649.txt 
 2015  git status
 2016  git commit -m 'Add HW2 file'
 2017  git remote -v
 2018  git push origin
 2019  git push origin class2_hw2_524649 
 2020  history | less

